reward_norm;performance;not_used;c;;;;;;;;;;;;;;;;;16531
-0,179057528;2960;0;base,berkeleyj,btreefeatures,checksum,chunkednio,criticaleviction,evictor,ievictor,incompressor,io,itracing,logsize,newio,niobase,niotype,persistence,s100mib,severe,statistics,tracing,tracinglevel;;;;;;;;;;;;;;;;;
-0,297199202;4913;0;base,berkeleyj,btreefeatures,checksum,chunkednio,criticaleviction,evictor,finest,ievictor,incompressor,io,itracing,logsize,newio,niobase,niotype,persistence,s100mib,statistics,tracing,tracinglevel;;;;;;;;;;;;;;;;;
-0,323210937;5343;0;base,berkeleyj,btreefeatures,checksum,chunkednio,criticaleviction,evictor,ievictor,incompressor,io,itracing,logsize,newio,niobase,niotype,persistence,s1mib,severe,statistics,tracing,tracinglevel;;;;;;;;;;;;;;;;;
-0,29514246;4879;0;base,berkeleyj,btreefeatures,checksum,criticaleviction,evictor,finest,ievictor,incompressor,io,itracing,logsize,oldio,persistence,s100mib,statistics,tracing,tracinglevel;;;;;;;;;;;;;;;;;
-0,322303551;5328;0;base,berkeleyj,btreefeatures,checksum,criticaleviction,evictor,ievictor,incompressor,io,itracing,logsize,oldio,persistence,s1mib,severe,statistics,tracing,tracinglevel,verifier;;;;;;;;;;;;;;;;;
-0,901639344;14905;0;base,berkeleyj,btreefeatures,checksum,criticaleviction,evictor,finest,ievictor,incompressor,io,itracing,logsize,oldio,persistence,s1mib,statistics,tracing,tracinglevel,verifier;;;;;;;;;;;;;;;;;
-0,30621257;5062;0;base,berkeleyj,btreefeatures,checksum,chunkednio,criticaleviction,directnio,evictor,finest,ievictor,incompressor,io,itracing,logsize,newio,niobase,niotype,persistence,s100mib,statistics,tracing,tracinglevel,verifier;;;;;;;;;;;;;;;;;
-0,195874418;3238;0;base,berkeleyj,btreefeatures,checksum,criticaleviction,evictor,ievictor,incompressor,io,itracing,logsize,newio,niobase,niotype,persistence,s100mib,severe,singlewritenio,statistics,tracing,tracinglevel,verifier;;;;;;;;;;;;;;;;;
-0,296594277;4903;0;base,berkeleyj,btreefeatures,checksum,criticaleviction,evictor,finest,ievictor,incompressor,io,itracing,logsize,oldio,persistence,s100mib,statistics,tracing,tracinglevel,verifier;;;;;;;;;;;;;;;;;
-0,889843325;14710;0;base,berkeleyj,btreefeatures,checksum,criticaleviction,evictor,finest,ievictor,incompressor,io,itracing,logsize,newio,niobase,niotype,persistence,s1mib,singlewritenio,statistics,tracing,tracinglevel;;;;;;;;;;;;;;;;;
-0,333192184;5508;0;base,berkeleyj,btreefeatures,checksum,chunkednio,criticaleviction,directnio,evictor,ievictor,incompressor,io,itracing,logsize,newio,niobase,niotype,persistence,s1mib,severe,statistics,tracing,tracinglevel,verifier;;;;;;;;;;;;;;;;;
-0,30796685;5091;0;base,berkeleyj,btreefeatures,checksum,criticaleviction,directnio,evictor,finest,ievictor,incompressor,io,itracing,logsize,newio,niobase,niotype,persistence,s100mib,singlewritenio,statistics,tracing,tracinglevel,verifier;;;;;;;;;;;;;;;;;
-0,888875446;14694;0;base,berkeleyj,btreefeatures,checksum,chunkednio,criticaleviction,evictor,finest,ievictor,incompressor,io,itracing,logsize,newio,niobase,niotype,persistence,s1mib,statistics,tracing,tracinglevel;;;;;;;;;;;;;;;;;
-0,322968967;5339;0;base,berkeleyj,btreefeatures,checksum,criticaleviction,evictor,ievictor,incompressor,io,itracing,logsize,newio,niobase,niotype,persistence,s1mib,severe,singlewritenio,statistics,tracing,tracinglevel,verifier;;;;;;;;;;;;;;;;;
-0,894440748;14786;0;base,berkeleyj,btreefeatures,checksum,criticaleviction,evictor,finest,ievictor,incompressor,io,itracing,logsize,oldio,persistence,s1mib,statistics,tracing,tracinglevel;;;;;;;;;;;;;;;;;
-0,886576735;14656;0;base,berkeleyj,btreefeatures,checksum,chunkednio,criticaleviction,evictor,finest,ievictor,incompressor,io,itracing,logsize,newio,niobase,niotype,persistence,s1mib,statistics,tracing,tracinglevel,verifier;;;;;;;;;;;;;;;;;
-0,321456657;5314;0;base,berkeleyj,btreefeatures,checksum,criticaleviction,evictor,ievictor,incompressor,io,itracing,logsize,newio,niobase,niotype,persistence,s1mib,severe,singlewritenio,statistics,tracing,tracinglevel;;;;;;;;;;;;;;;;;
-0,330107072;5457;0;base,berkeleyj,btreefeatures,checksum,criticaleviction,directnio,evictor,ievictor,incompressor,io,itracing,logsize,newio,niobase,niotype,persistence,s1mib,severe,singlewritenio,statistics,tracing,tracinglevel;;;;;;;;;;;;;;;;;
-0,295202952;4880;0;base,berkeleyj,btreefeatures,checksum,chunkednio,criticaleviction,evictor,finest,ievictor,incompressor,io,itracing,logsize,newio,niobase,niotype,persistence,s100mib,statistics,tracing,tracinglevel,verifier;;;;;;;;;;;;;;;;;
-0,191579457;3167;0;base,berkeleyj,btreefeatures,checksum,criticaleviction,directnio,evictor,ievictor,incompressor,io,itracing,logsize,newio,niobase,niotype,persistence,s100mib,severe,singlewritenio,statistics,tracing,tracinglevel;;;;;;;;;;;;;;;;;
-0,190853548;3155;0;base,berkeleyj,btreefeatures,checksum,chunkednio,criticaleviction,evictor,ievictor,incompressor,io,itracing,logsize,newio,niobase,niotype,persistence,s100mib,severe,statistics,tracing,tracinglevel,verifier;;;;;;;;;;;;;;;;;
-0,207126006;3424;0;base,berkeleyj,btreefeatures,checksum,chunkednio,criticaleviction,directnio,evictor,ievictor,incompressor,io,itracing,logsize,newio,niobase,niotype,persistence,s100mib,severe,statistics,tracing,tracinglevel;;;;;;;;;;;;;;;;;
-0,335611881;5548;0;base,berkeleyj,btreefeatures,checksum,chunkednio,criticaleviction,directnio,evictor,ievictor,incompressor,io,itracing,logsize,newio,niobase,niotype,persistence,s1mib,severe,statistics,tracing,tracinglevel;;;;;;;;;;;;;;;;;
-0,994495191;16440;0;base,berkeleyj,btreefeatures,checksum,chunkednio,criticaleviction,directnio,evictor,finest,ievictor,incompressor,io,itracing,logsize,newio,niobase,niotype,persistence,s1mib,statistics,tracing,tracinglevel;;;;;;;;;;;;;;;;;
-0,305365677;5048;0;base,berkeleyj,btreefeatures,checksum,criticaleviction,directnio,evictor,finest,ievictor,incompressor,io,itracing,logsize,newio,niobase,niotype,persistence,s100mib,singlewritenio,statistics,tracing,tracinglevel;;;;;;;;;;;;;;;;;
-0,19266832;3185;0;base,berkeleyj,btreefeatures,checksum,criticaleviction,evictor,ievictor,incompressor,io,itracing,logsize,newio,niobase,niotype,persistence,s100mib,severe,singlewritenio,statistics,tracing,tracinglevel;;;;;;;;;;;;;;;;;
-0,890871696;14727;0;base,berkeleyj,btreefeatures,checksum,criticaleviction,evictor,finest,ievictor,incompressor,io,itracing,logsize,newio,niobase,niotype,persistence,s1mib,singlewritenio,statistics,tracing,tracinglevel,verifier;;;;;;;;;;;;;;;;;
-0,212449338;3512;0;base,berkeleyj,btreefeatures,checksum,criticaleviction,evictor,ievictor,incompressor,io,itracing,logsize,oldio,persistence,s100mib,severe,statistics,tracing,tracinglevel,verifier;;;;;;;;;;;;;;;;;
-0,321214688;5310;0;base,berkeleyj,btreefeatures,checksum,criticaleviction,evictor,ievictor,incompressor,io,itracing,logsize,oldio,persistence,s1mib,severe,statistics,tracing,tracinglevel;;;;;;;;;;;;;;;;;
-0,297320186;4915;0;base,berkeleyj,btreefeatures,checksum,criticaleviction,evictor,finest,ievictor,incompressor,io,itracing,logsize,newio,niobase,niotype,persistence,s100mib,singlewritenio,statistics,tracing,tracinglevel;;;;;;;;;;;;;;;;;
-0,321456657;5314;0;base,berkeleyj,btreefeatures,checksum,chunkednio,criticaleviction,evictor,ievictor,incompressor,io,itracing,logsize,newio,niobase,niotype,persistence,s1mib,severe,statistics,tracing,tracinglevel,verifier;;;;;;;;;;;;;;;;;
-0,99497913;16448;0;base,berkeleyj,btreefeatures,checksum,chunkednio,criticaleviction,directnio,evictor,finest,ievictor,incompressor,io,itracing,logsize,newio,niobase,niotype,persistence,s1mib,statistics,tracing,tracinglevel,verifier;;;;;;;;;;;;;;;;;
-0,190732563;3153;0;base,berkeleyj,btreefeatures,checksum,criticaleviction,evictor,ievictor,incompressor,io,itracing,logsize,oldio,persistence,s100mib,severe,statistics,tracing,tracinglevel;;;;;;;;;;;;;;;;;
-0,209122255;3457;0;base,berkeleyj,btreefeatures,checksum,chunkednio,criticaleviction,directnio,evictor,ievictor,incompressor,io,itracing,logsize,newio,niobase,niotype,persistence,s100mib,severe,statistics,tracing,tracinglevel,verifier;;;;;;;;;;;;;;;;;
-0,195390478;3230;0;base,berkeleyj,btreefeatures,checksum,criticaleviction,directnio,evictor,ievictor,incompressor,io,itracing,logsize,newio,niobase,niotype,persistence,s100mib,severe,singlewritenio,statistics,tracing,tracinglevel,verifier;;;;;;;;;;;;;;;;;
-1;16531;0;base,berkeleyj,btreefeatures,checksum,criticaleviction,directnio,evictor,finest,ievictor,incompressor,io,itracing,logsize,newio,niobase,niotype,persistence,s1mib,singlewritenio,statistics,tracing,tracinglevel;;;;;;;;;;;;;;;;;
-0,296231323;4897;0;base,berkeleyj,btreefeatures,checksum,criticaleviction,evictor,finest,ievictor,incompressor,io,itracing,logsize,newio,niobase,niotype,persistence,s100mib,singlewritenio,statistics,tracing,tracinglevel,verifier;;;;;;;;;;;;;;;;;
-0,307906358;5090;0;base,berkeleyj,btreefeatures,checksum,chunkednio,criticaleviction,directnio,evictor,finest,ievictor,incompressor,io,itracing,logsize,newio,niobase,niotype,persistence,s100mib,statistics,tracing,tracinglevel;;;;;;;;;;;;;;;;;
-0,330711996;5467;0;base,berkeleyj,btreefeatures,checksum,criticaleviction,directnio,evictor,ievictor,incompressor,io,itracing,logsize,newio,niobase,niotype,persistence,s1mib,severe,singlewritenio,statistics,tracing,tracinglevel,verifier;;;;;;;;;;;;;;;;;
-0,994616176;16442;0;base,berkeleyj,btreefeatures,checksum,criticaleviction,directnio,evictor,finest,ievictor,incompressor,io,itracing,logsize,newio,niobase,niotype,persistence,s1mib,singlewritenio,statistics,tracing,tracinglevel,verifier;;;;;;;;;;;;;;;;;
-0,201621197;3333;0;base,berkeleyj,btreefeatures,checksum,criticaleviction,evictor,ievictor,incompressor,io,logsize,oldio,persistence,s100mib,statistics,verifier;;;;;;;;;;;;;;;;;
-0,322303551;5328;0;base,berkeleyj,btreefeatures,checksum,criticaleviction,evictor,ievictor,incompressor,io,logsize,newio,niobase,niotype,persistence,s1mib,singlewritenio,statistics;;;;;;;;;;;;;;;;;
-0,2127518;3517;0;base,berkeleyj,btreefeatures,checksum,criticaleviction,directnio,evictor,ievictor,incompressor,io,logsize,newio,niobase,niotype,persistence,s100mib,singlewritenio,statistics,verifier;;;;;;;;;;;;;;;;;
-0,218075132;3605;0;base,berkeleyj,btreefeatures,checksum,chunkednio,criticaleviction,directnio,evictor,ievictor,incompressor,io,logsize,newio,niobase,niotype,persistence,s100mib,statistics;;;;;;;;;;;;;;;;;
-0,321093703;5308;0;base,berkeleyj,btreefeatures,checksum,chunkednio,criticaleviction,evictor,ievictor,incompressor,io,logsize,newio,niobase,niotype,persistence,s1mib,statistics;;;;;;;;;;;;;;;;;
-0,333313169;5510;0;base,berkeleyj,btreefeatures,checksum,criticaleviction,directnio,evictor,ievictor,incompressor,io,logsize,newio,niobase,niotype,persistence,s1mib,singlewritenio,statistics;;;;;;;;;;;;;;;;;
-0,321577642;5316;0;base,berkeleyj,btreefeatures,checksum,chunkednio,criticaleviction,evictor,ievictor,incompressor,io,logsize,newio,niobase,niotype,persistence,s1mib,statistics,verifier;;;;;;;;;;;;;;;;;
-0,325872603;5387;0;base,berkeleyj,btreefeatures,checksum,criticaleviction,evictor,ievictor,incompressor,io,logsize,newio,niobase,niotype,persistence,s1mib,singlewritenio,statistics,verifier;;;;;;;;;;;;;;;;;
-0,184985784;3058;0;base,berkeleyj,btreefeatures,checksum,criticaleviction,directnio,evictor,ievictor,incompressor,io,logsize,newio,niobase,niotype,persistence,s100mib,singlewritenio,statistics;;;;;;;;;;;;;;;;;
-0,332345291;5494;0;base,berkeleyj,btreefeatures,checksum,chunkednio,criticaleviction,directnio,evictor,ievictor,incompressor,io,logsize,newio,niobase,niotype,persistence,s1mib,statistics,verifier;;;;;;;;;;;;;;;;;
-0,205553203;3398;0;base,berkeleyj,btreefeatures,checksum,criticaleviction,evictor,ievictor,incompressor,io,logsize,oldio,persistence,s100mib,statistics;;;;;;;;;;;;;;;;;
-0,322908475;5338;0;base,berkeleyj,btreefeatures,checksum,criticaleviction,evictor,ievictor,incompressor,io,logsize,oldio,persistence,s1mib,statistics,verifier;;;;;;;;;;;;;;;;;
-0,33282923;5502;0;base,berkeleyj,btreefeatures,checksum,criticaleviction,directnio,evictor,ievictor,incompressor,io,logsize,newio,niobase,niotype,persistence,s1mib,singlewritenio,statistics,verifier;;;;;;;;;;;;;;;;;
-0,333615631;5515;0;base,berkeleyj,btreefeatures,checksum,chunkednio,criticaleviction,directnio,evictor,ievictor,incompressor,io,logsize,newio,niobase,niotype,persistence,s1mib,statistics;;;;;;;;;;;;;;;;;
-0,190127639;3143;0;base,berkeleyj,btreefeatures,checksum,criticaleviction,evictor,ievictor,incompressor,io,logsize,newio,niobase,niotype,persistence,s100mib,singlewritenio,statistics;;;;;;;;;;;;;;;;;
-0,184683322;3053;0;base,berkeleyj,btreefeatures,checksum,chunkednio,criticaleviction,evictor,ievictor,incompressor,io,logsize,newio,niobase,niotype,persistence,s100mib,statistics,verifier;;;;;;;;;;;;;;;;;
-0,20246809;3347;0;base,berkeleyj,btreefeatures,checksum,criticaleviction,evictor,ievictor,incompressor,io,logsize,newio,niobase,niotype,persistence,s100mib,singlewritenio,statistics,verifier;;;;;;;;;;;;;;;;;
-0,320851733;5304;0;base,berkeleyj,btreefeatures,checksum,criticaleviction,evictor,ievictor,incompressor,io,logsize,oldio,persistence,s1mib,statistics;;;;;;;;;;;;;;;;;
-0,207428468;3429;0;base,berkeleyj,btreefeatures,checksum,chunkednio,criticaleviction,directnio,evictor,ievictor,incompressor,io,logsize,newio,niobase,niotype,persistence,s100mib,statistics,verifier;;;;;;;;;;;;;;;;;
-0,206400097;3412;0;base,berkeleyj,btreefeatures,checksum,chunkednio,criticaleviction,evictor,ievictor,incompressor,io,logsize,newio,niobase,niotype,persistence,s100mib,statistics;;;;;;;;;;;;;;;;;
-0,213659186;3532;0;base,berkeleyj,btreefeatures,checksum,criticaleviction,evictor,ievictor,incompressor,io,itracing,logsize,newio,niobase,niotype,persistence,s100mib,severe,singlewritenio,tracing,tracinglevel,verifier;;;;;;;;;;;;;;;;;
-0,28987962;4792;0;base,berkeleyj,btreefeatures,checksum,chunkednio,criticaleviction,evictor,finest,ievictor,incompressor,io,itracing,logsize,newio,niobase,niotype,persistence,s100mib,tracing,tracinglevel,verifier;;;;;;;;;;;;;;;;;
-0,191216502;3161;0;base,berkeleyj,btreefeatures,checksum,criticaleviction,evictor,ievictor,incompressor,io,itracing,logsize,oldio,persistence,s100mib,severe,tracing,tracinglevel,verifier;;;;;;;;;;;;;;;;;
-0,991591555;16392;0;base,berkeleyj,btreefeatures,checksum,criticaleviction,directnio,evictor,finest,ievictor,incompressor,io,itracing,logsize,newio,niobase,niotype,persistence,s1mib,singlewritenio,tracing,tracinglevel,verifier;;;;;;;;;;;;;;;;;
-0,203133507;3358;0;base,berkeleyj,btreefeatures,checksum,criticaleviction,directnio,evictor,ievictor,incompressor,io,itracing,logsize,newio,niobase,niotype,persistence,s100mib,severe,singlewritenio,tracing,tracinglevel,verifier;;;;;;;;;;;;;;;;;
-0,197870667;3271;0;base,berkeleyj,btreefeatures,checksum,chunkednio,criticaleviction,evictor,ievictor,incompressor,io,logsize,newio,niobase,niotype,persistence,s100mib,verifier;;;;;;;;;;;;;;;;;
-0,194543585;3216;0;base,berkeleyj,btreefeatures,checksum,criticaleviction,evictor,ievictor,incompressor,io,logsize,newio,niobase,niotype,persistence,s100mib,singlewritenio,verifier;;;;;;;;;;;;;;;;;
-0,316677757;5235;0;base,berkeleyj,btreefeatures,checksum,criticaleviction,evictor,ievictor,incompressor,io,logsize,newio,niobase,niotype,persistence,s1mib,singlewritenio,verifier;;;;;;;;;;;;;;;;;
-0,299860867;4957;0;base,berkeleyj,btreefeatures,checksum,criticaleviction,directnio,evictor,finest,ievictor,incompressor,io,itracing,logsize,newio,niobase,niotype,persistence,s100mib,singlewritenio,tracing,tracinglevel,verifier;;;;;;;;;;;;;;;;;
-0,881979312;14580;0;base,berkeleyj,btreefeatures,checksum,criticaleviction,evictor,finest,ievictor,incompressor,io,itracing,logsize,oldio,persistence,s1mib,tracing,tracinglevel,verifier;;;;;;;;;;;;;;;;;
-0,197084266;3258;0;base,berkeleyj,btreefeatures,checksum,chunkednio,criticaleviction,directnio,evictor,ievictor,incompressor,io,itracing,logsize,newio,niobase,niotype,persistence,s100mib,severe,tracing,tracinglevel,verifier;;;;;;;;;;;;;;;;;
-0,327929345;5421;0;base,berkeleyj,btreefeatures,checksum,criticaleviction,directnio,evictor,ievictor,incompressor,io,logsize,newio,niobase,niotype,persistence,s1mib,singlewritenio,verifier;;;;;;;;;;;;;;;;;
-0,319036961;5274;0;base,berkeleyj,btreefeatures,checksum,chunkednio,criticaleviction,evictor,ievictor,incompressor,io,itracing,logsize,newio,niobase,niotype,persistence,s1mib,severe,tracing,tracinglevel,verifier;;;;;;;;;;;;;;;;;
-0,193273244;3195;0;base,berkeleyj,btreefeatures,checksum,chunkednio,criticaleviction,evictor,ievictor,incompressor,io,itracing,logsize,newio,niobase,niotype,persistence,s100mib,severe,tracing,tracinglevel,verifier;;;;;;;;;;;;;;;;;
-0,317040711;5241;0;base,berkeleyj,btreefeatures,checksum,criticaleviction,evictor,ievictor,incompressor,io,itracing,logsize,newio,niobase,niotype,persistence,s1mib,severe,singlewritenio,tracing,tracinglevel,verifier;;;;;;;;;;;;;;;;;
-0,992015002;16399;0;base,berkeleyj,btreefeatures,checksum,chunkednio,criticaleviction,directnio,evictor,finest,ievictor,incompressor,io,itracing,logsize,newio,niobase,niotype,persistence,s1mib,tracing,tracinglevel,verifier;;;;;;;;;;;;;;;;;
-0,202105136;3341;0;base,berkeleyj,btreefeatures,checksum,chunkednio,criticaleviction,directnio,evictor,ievictor,incompressor,io,logsize,newio,niobase,niotype,persistence,s100mib,verifier;;;;;;;;;;;;;;;;;
-0,887242151;14667;0;base,berkeleyj,btreefeatures,checksum,criticaleviction,evictor,finest,ievictor,incompressor,io,itracing,logsize,newio,niobase,niotype,persistence,s1mib,singlewritenio,tracing,tracinglevel,verifier;;;;;;;;;;;;;;;;;
-0,201802674;3336;0;base,berkeleyj,btreefeatures,checksum,criticaleviction,directnio,evictor,ievictor,incompressor,io,logsize,newio,niobase,niotype,persistence,s100mib,singlewritenio,verifier;;;;;;;;;;;;;;;;;
-0,318371544;5263;0;base,berkeleyj,btreefeatures,checksum,chunkednio,criticaleviction,evictor,ievictor,incompressor,io,logsize,newio,niobase,niotype,persistence,s1mib,verifier;;;;;;;;;;;;;;;;;
-0,197749682;3269;0;base,berkeleyj,btreefeatures,checksum,criticaleviction,evictor,ievictor,incompressor,io,logsize,oldio,persistence,s100mib,verifier;;;;;;;;;;;;;;;;;
-0,317040711;5241;0;base,berkeleyj,btreefeatures,checksum,criticaleviction,evictor,ievictor,incompressor,io,logsize,oldio,persistence,s1mib,verifier;;;;;;;;;;;;;;;;;
-0,282378561;4668;0;base,berkeleyj,btreefeatures,checksum,criticaleviction,evictor,finest,ievictor,incompressor,io,itracing,logsize,newio,niobase,niotype,persistence,s100mib,singlewritenio,tracing,tracinglevel,verifier;;;;;;;;;;;;;;;;;
-0,328776239;5435;0;base,berkeleyj,btreefeatures,checksum,chunkednio,criticaleviction,directnio,evictor,ievictor,incompressor,io,logsize,newio,niobase,niotype,persistence,s1mib,verifier;;;;;;;;;;;;;;;;;
-0,327868852;5420;0;base,berkeleyj,btreefeatures,checksum,criticaleviction,directnio,evictor,ievictor,incompressor,io,itracing,logsize,newio,niobase,niotype,persistence,s1mib,severe,singlewritenio,tracing,tracinglevel,verifier;;;;;;;;;;;;;;;;;
-0,32780836;5419;0;base,berkeleyj,btreefeatures,checksum,chunkednio,criticaleviction,directnio,evictor,ievictor,incompressor,io,itracing,logsize,newio,niobase,niotype,persistence,s1mib,severe,tracing,tracinglevel,verifier;;;;;;;;;;;;;;;;;
-0,289577158;4787;0;base,berkeleyj,btreefeatures,checksum,criticaleviction,evictor,finest,ievictor,incompressor,io,itracing,logsize,oldio,persistence,s100mib,tracing,tracinglevel,verifier;;;;;;;;;;;;;;;;;
-0,894380255;14785;0;base,berkeleyj,btreefeatures,checksum,chunkednio,criticaleviction,evictor,finest,ievictor,incompressor,io,itracing,logsize,newio,niobase,niotype,persistence,s1mib,tracing,tracinglevel,verifier;;;;;;;;;;;;;;;;;
-0,299618898;4953;0;base,berkeleyj,btreefeatures,checksum,chunkednio,criticaleviction,directnio,evictor,finest,ievictor,incompressor,io,itracing,logsize,newio,niobase,niotype,persistence,s100mib,tracing,tracinglevel,verifier;;;;;;;;;;;;;;;;;
-0,321154195;5309;0;base,berkeleyj,btreefeatures,checksum,criticaleviction,evictor,ievictor,incompressor,io,itracing,logsize,oldio,persistence,s1mib,severe,tracing,tracinglevel,verifier;;;;;;;;;;;;;;;;;
-0,190974533;3157;0;base,berkeleyj,btreefeatures,checksum,chunkednio,criticaleviction,evictor,ievictor,incompressor,io,itracing,logsize,newio,niobase,niotype,persistence,s100mib,severe,tracing,tracinglevel;;;;;;;;;;;;;;;;;
-0,18915976;3127;0;base,berkeleyj,btreefeatures,checksum,criticaleviction,directnio,evictor,ievictor,incompressor,io,itracing,logsize,newio,niobase,niotype,persistence,s100mib,severe,singlewritenio,tracing,tracinglevel;;;;;;;;;;;;;;;;;
-0,989111367;16351;0;base,berkeleyj,btreefeatures,checksum,chunkednio,criticaleviction,directnio,evictor,finest,ievictor,incompressor,io,itracing,logsize,newio,niobase,niotype,persistence,s1mib,tracing,tracinglevel;;;;;;;;;;;;;;;;;
-0,186619079;3085;0;base,berkeleyj,btreefeatures,checksum,criticaleviction,directnio,evictor,ievictor,incompressor,io,logsize,newio,niobase,niotype,persistence,s100mib,singlewritenio;;;;;;;;;;;;;;;;;
-0,284193334;4698;0;base,berkeleyj,btreefeatures,checksum,chunkednio,criticaleviction,evictor,finest,ievictor,incompressor,io,itracing,logsize,newio,niobase,niotype,persistence,s100mib,tracing,tracinglevel;;;;;;;;;;;;;;;;;
-0,32605408;5390;0;base,berkeleyj,btreefeatures,checksum,chunkednio,criticaleviction,directnio,evictor,ievictor,incompressor,io,itracing,logsize,newio,niobase,niotype,persistence,s1mib,severe,tracing,tracinglevel;;;;;;;;;;;;;;;;;
-0,329623132;5449;0;base,berkeleyj,btreefeatures,checksum,criticaleviction,directnio,evictor,ievictor,incompressor,io,logsize,newio,niobase,niotype,persistence,s1mib,singlewritenio;;;;;;;;;;;;;;;;;
-0,200471841;3314;0;base,berkeleyj,btreefeatures,checksum,criticaleviction,evictor,ievictor,incompressor,io,logsize,oldio,persistence,s100mib;;;;;;;;;;;;;;;;;
-0,316375295;5230;0;base,berkeleyj,btreefeatures,checksum,criticaleviction,evictor,ievictor,incompressor,io,itracing,logsize,newio,niobase,niotype,persistence,s1mib,severe,singlewritenio,tracing,tracinglevel;;;;;;;;;;;;;;;;;
-0,186861049;3089;0;base,berkeleyj,btreefeatures,checksum,chunkednio,criticaleviction,directnio,evictor,ievictor,incompressor,io,logsize,newio,niobase,niotype,persistence,s100mib;;;;;;;;;;;;;;;;;
-0,882826205;14594;0;base,berkeleyj,btreefeatures,checksum,chunkednio,criticaleviction,evictor,finest,ievictor,incompressor,io,itracing,logsize,newio,niobase,niotype,persistence,s1mib,tracing,tracinglevel;;;;;;;;;;;;;;;;;
-0,297622648;4920;0;base,berkeleyj,btreefeatures,checksum,criticaleviction,directnio,evictor,finest,ievictor,incompressor,io,itracing,logsize,newio,niobase,niotype,persistence,s100mib,singlewritenio,tracing,tracinglevel;;;;;;;;;;;;;;;;;
-0,197386728;3263;0;base,berkeleyj,btreefeatures,checksum,criticaleviction,evictor,ievictor,incompressor,io,logsize,newio,niobase,niotype,persistence,s100mib,singlewritenio;;;;;;;;;;;;;;;;;
-0,192244873;3178;0;base,berkeleyj,btreefeatures,checksum,criticaleviction,evictor,ievictor,incompressor,io,itracing,logsize,newio,niobase,niotype,persistence,s100mib,severe,singlewritenio,tracing,tracinglevel;;;;;;;;;;;;;;;;;
-0,316556772;5233;0;base,berkeleyj,btreefeatures,checksum,chunkednio,criticaleviction,evictor,ievictor,incompressor,io,itracing,logsize,newio,niobase,niotype,persistence,s1mib,severe,tracing,tracinglevel;;;;;;;;;;;;;;;;;
-0,315770371;5220;0;base,berkeleyj,btreefeatures,checksum,criticaleviction,evictor,ievictor,incompressor,io,itracing,logsize,oldio,persistence,s1mib,severe,tracing,tracinglevel;;;;;;;;;;;;;;;;;
-0,19744722;3264;0;base,berkeleyj,btreefeatures,checksum,criticaleviction,evictor,ievictor,incompressor,io,itracing,logsize,oldio,persistence,s100mib,severe,tracing,tracinglevel;;;;;;;;;;;;;;;;;
-0,317948098;5256;0;base,berkeleyj,btreefeatures,checksum,criticaleviction,evictor,ievictor,incompressor,io,logsize,newio,niobase,niotype,persistence,s1mib,singlewritenio;;;;;;;;;;;;;;;;;
-0,19768919;3268;0;base,berkeleyj,btreefeatures,checksum,chunkednio,criticaleviction,evictor,ievictor,incompressor,io,logsize,newio,niobase,niotype,persistence,s100mib;;;;;;;;;;;;;;;;;
-0,287883371;4759;0;base,berkeleyj,btreefeatures,checksum,criticaleviction,evictor,finest,ievictor,incompressor,io,itracing,logsize,newio,niobase,niotype,persistence,s100mib,singlewritenio,tracing,tracinglevel;;;;;;;;;;;;;;;;;
-0,299013974;4943;0;base,berkeleyj,btreefeatures,checksum,chunkednio,criticaleviction,directnio,evictor,finest,ievictor,incompressor,io,itracing,logsize,newio,niobase,niotype,persistence,s100mib,tracing,tracinglevel;;;;;;;;;;;;;;;;;
-0,288427802;4768;0;base,berkeleyj,btreefeatures,checksum,criticaleviction,evictor,finest,ievictor,incompressor,io,itracing,logsize,oldio,persistence,s100mib,tracing,tracinglevel;;;;;;;;;;;;;;;;;
-0,992135987;16401;0;base,berkeleyj,btreefeatures,checksum,criticaleviction,directnio,evictor,finest,ievictor,incompressor,io,itracing,logsize,newio,niobase,niotype,persistence,s1mib,singlewritenio,tracing,tracinglevel;;;;;;;;;;;;;;;;;
-0,316677757;5235;0;base,berkeleyj,btreefeatures,checksum,criticaleviction,evictor,ievictor,incompressor,io,logsize,oldio,persistence,s1mib;;;;;;;;;;;;;;;;;
-0,316435787;5231;0;base,berkeleyj,btreefeatures,checksum,chunkednio,criticaleviction,evictor,ievictor,incompressor,io,logsize,newio,niobase,niotype,persistence,s1mib;;;;;;;;;;;;;;;;;
-0,330591011;5465;0;base,berkeleyj,btreefeatures,checksum,criticaleviction,directnio,evictor,ievictor,incompressor,io,itracing,logsize,newio,niobase,niotype,persistence,s1mib,severe,singlewritenio,tracing,tracinglevel;;;;;;;;;;;;;;;;;
-0,328594761;5432;0;base,berkeleyj,btreefeatures,checksum,chunkednio,criticaleviction,directnio,evictor,ievictor,incompressor,io,logsize,newio,niobase,niotype,persistence,s1mib;;;;;;;;;;;;;;;;;
-0,190793055;3154;0;base,berkeleyj,btreefeatures,checksum,chunkednio,criticaleviction,directnio,evictor,ievictor,incompressor,io,itracing,logsize,newio,niobase,niotype,persistence,s100mib,severe,tracing,tracinglevel;;;;;;;;;;;;;;;;;
-0,880890448;14562;0;base,berkeleyj,btreefeatures,checksum,criticaleviction,evictor,finest,ievictor,incompressor,io,itracing,logsize,oldio,persistence,s1mib,tracing,tracinglevel;;;;;;;;;;;;;;;;;
-0,884822455;14627;0;base,berkeleyj,btreefeatures,checksum,criticaleviction,evictor,finest,ievictor,incompressor,io,itracing,logsize,newio,niobase,niotype,persistence,s1mib,singlewritenio,tracing,tracinglevel;;;;;;;;;;;;;;;;;
-0,195511463;3232;0;base,berkeleyj,btreefeatures,checksum,chunkednio,criticaleviction,evictor,ievictor,io,logsize,newio,niobase,niotype,persistence,s100mib,statistics;;;;;;;;;;;;;;;;;
-0,332647753;5499;0;base,berkeleyj,btreefeatures,checksum,criticaleviction,directnio,evictor,ievictor,io,itracing,logsize,newio,niobase,niotype,persistence,s1mib,severe,singlewritenio,statistics,tracing,tracinglevel;;;;;;;;;;;;;;;;;
-0,305123707;5044;0;base,berkeleyj,btreefeatures,checksum,chunkednio,criticaleviction,directnio,evictor,finest,ievictor,io,itracing,logsize,newio,niobase,niotype,persistence,s100mib,statistics,tracing,tracinglevel;;;;;;;;;;;;;;;;;
-0,282439054;4669;0;base,berkeleyj,btreefeatures,checksum,chunkednio,criticaleviction,evictor,finest,ievictor,io,itracing,logsize,newio,niobase,niotype,persistence,s100mib,tracing,tracinglevel;;;;;;;;;;;;;;;;;
-0,185409231;3065;0;base,berkeleyj,btreefeatures,checksum,criticaleviction,directnio,evictor,ievictor,io,logsize,newio,niobase,niotype,persistence,s100mib,singlewritenio;;;;;;;;;;;;;;;;;
-0,191216502;3161;0;base,berkeleyj,btreefeatures,checksum,criticaleviction,directnio,evictor,ievictor,io,itracing,logsize,newio,niobase,niotype,persistence,s100mib,severe,singlewritenio,tracing,tracinglevel;;;;;;;;;;;;;;;;;
-0,195692941;3235;0;base,berkeleyj,btreefeatures,checksum,criticaleviction,directnio,evictor,ievictor,io,logsize,newio,niobase,niotype,persistence,s100mib,singlewritenio,statistics;;;;;;;;;;;;;;;;;
-0,885487871;14638;0;base,berkeleyj,btreefeatures,checksum,criticaleviction,evictor,finest,ievictor,io,itracing,logsize,oldio,persistence,s1mib,tracing,tracinglevel;;;;;;;;;;;;;;;;;
-0,32454177;5365;0;base,berkeleyj,btreefeatures,checksum,criticaleviction,directnio,evictor,ievictor,io,logsize,newio,niobase,niotype,persistence,s1mib,singlewritenio;;;;;;;;;;;;;;;;;
-0,191821426;3171;0;base,berkeleyj,btreefeatures,checksum,chunkednio,criticaleviction,directnio,evictor,ievictor,io,itracing,logsize,newio,niobase,niotype,persistence,s100mib,severe,tracing,tracinglevel;;;;;;;;;;;;;;;;;
-0,323876354;5354;0;base,berkeleyj,btreefeatures,checksum,criticaleviction,directnio,evictor,ievictor,io,itracing,logsize,newio,niobase,niotype,persistence,s1mib,severe,singlewritenio,tracing,tracinglevel;;;;;;;;;;;;;;;;;
-0,320307301;5295;0;base,berkeleyj,btreefeatures,checksum,criticaleviction,evictor,ievictor,io,logsize,newio,niobase,niotype,persistence,s1mib,singlewritenio,statistics;;;;;;;;;;;;;;;;;
-0,886395257;14653;0;base,berkeleyj,btreefeatures,checksum,criticaleviction,evictor,finest,ievictor,io,itracing,logsize,newio,niobase,niotype,persistence,s1mib,singlewritenio,tracing,tracinglevel;;;;;;;;;;;;;;;;;
-0,3242998;5361;0;base,berkeleyj,btreefeatures,checksum,chunkednio,criticaleviction,directnio,evictor,ievictor,io,itracing,logsize,newio,niobase,niotype,persistence,s1mib,severe,tracing,tracinglevel;;;;;;;;;;;;;;;;;
-0,316435787;5231;0;base,berkeleyj,btreefeatures,checksum,criticaleviction,evictor,ievictor,io,logsize,oldio,persistence,s1mib;;;;;;;;;;;;;;;;;
-0,196539834;3249;0;base,berkeleyj,btreefeatures,checksum,criticaleviction,evictor,ievictor,io,logsize,newio,niobase,niotype,persistence,s100mib,singlewritenio;;;;;;;;;;;;;;;;;
-0,323150445;5342;0;base,berkeleyj,btreefeatures,checksum,criticaleviction,evictor,ievictor,io,itracing,logsize,newio,niobase,niotype,persistence,s1mib,severe,singlewritenio,statistics,tracing,tracinglevel;;;;;;;;;;;;;;;;;
-0,197749682;3269;0;base,berkeleyj,btreefeatures,checksum,criticaleviction,evictor,ievictor,io,itracing,logsize,oldio,persistence,s100mib,severe,tracing,tracinglevel;;;;;;;;;;;;;;;;;
-0,31498397;5207;0;base,berkeleyj,btreefeatures,checksum,criticaleviction,evictor,ievictor,io,logsize,newio,niobase,niotype,persistence,s1mib,singlewritenio;;;;;;;;;;;;;;;;;
-0,331861351;5486;0;base,berkeleyj,btreefeatures,checksum,criticaleviction,directnio,evictor,ievictor,io,logsize,newio,niobase,niotype,persistence,s1mib,singlewritenio,statistics;;;;;;;;;;;;;;;;;
-0,189825177;3138;0;base,berkeleyj,btreefeatures,checksum,criticaleviction,evictor,ievictor,io,logsize,oldio,persistence,s100mib,statistics;;;;;;;;;;;;;;;;;
-0,888331014;14685;0;base,berkeleyj,btreefeatures,checksum,chunkednio,criticaleviction,evictor,finest,ievictor,io,itracing,logsize,newio,niobase,niotype,persistence,s1mib,tracing,tracinglevel;;;;;;;;;;;;;;;;;
-0,192486843;3182;0;base,berkeleyj,btreefeatures,checksum,chunkednio,criticaleviction,evictor,ievictor,io,logsize,newio,niobase,niotype,persistence,s100mib;;;;;;;;;;;;;;;;;
-0,315528401;5216;0;base,berkeleyj,btreefeatures,checksum,chunkednio,criticaleviction,evictor,ievictor,io,itracing,logsize,newio,niobase,niotype,persistence,s1mib,severe,tracing,tracinglevel;;;;;;;;;;;;;;;;;
-0,208759301;3451;0;base,berkeleyj,btreefeatures,checksum,criticaleviction,evictor,ievictor,io,logsize,oldio,persistence,s100mib;;;;;;;;;;;;;;;;;
-0,988566935;16342;0;base,berkeleyj,btreefeatures,checksum,chunkednio,criticaleviction,directnio,evictor,finest,ievictor,io,itracing,logsize,newio,niobase,niotype,persistence,s1mib,tracing,tracinglevel;;;;;;;;;;;;;;;;;
-0,296291815;4898;0;base,berkeleyj,btreefeatures,checksum,chunkednio,criticaleviction,directnio,evictor,finest,ievictor,io,itracing,logsize,newio,niobase,niotype,persistence,s100mib,tracing,tracinglevel;;;;;;;;;;;;;;;;;
-0,323997338;5356;0;base,berkeleyj,btreefeatures,checksum,chunkednio,criticaleviction,evictor,ievictor,io,itracing,logsize,newio,niobase,niotype,persistence,s1mib,severe,statistics,tracing,tracinglevel;;;;;;;;;;;;;;;;;
-0,284616781;4705;0;base,berkeleyj,btreefeatures,checksum,criticaleviction,evictor,finest,ievictor,io,itracing,logsize,newio,niobase,niotype,persistence,s100mib,singlewritenio,tracing,tracinglevel;;;;;;;;;;;;;;;;;
-0,319944347;5289;0;base,berkeleyj,btreefeatures,checksum,criticaleviction,evictor,ievictor,io,logsize,oldio,persistence,s1mib,statistics;;;;;;;;;;;;;;;;;
-0,31625431;5228;0;base,berkeleyj,btreefeatures,checksum,criticaleviction,evictor,ievictor,io,itracing,logsize,oldio,persistence,s1mib,severe,tracing,tracinglevel;;;;;;;;;;;;;;;;;
-0,330470026;5463;0;base,berkeleyj,btreefeatures,checksum,chunkednio,criticaleviction,directnio,evictor,ievictor,io,logsize,newio,niobase,niotype,persistence,s1mib;;;;;;;;;;;;;;;;;
-0,299497913;4951;0;base,berkeleyj,btreefeatures,checksum,criticaleviction,directnio,evictor,finest,ievictor,io,itracing,logsize,newio,niobase,niotype,persistence,s100mib,singlewritenio,tracing,tracinglevel;;;;;;;;;;;;;;;;;
-0,322303551;5328;0;base,berkeleyj,btreefeatures,checksum,criticaleviction,evictor,ievictor,io,itracing,logsize,oldio,persistence,s1mib,severe,statistics,tracing,tracinglevel;;;;;;;;;;;;;;;;;
-0,305184199;5045;0;base,berkeleyj,btreefeatures,checksum,criticaleviction,directnio,evictor,finest,ievictor,io,itracing,logsize,newio,niobase,niotype,persistence,s100mib,singlewritenio,statistics,tracing,tracinglevel;;;;;;;;;;;;;;;;;
-0,192184381;3177;0;base,berkeleyj,btreefeatures,checksum,criticaleviction,evictor,ievictor,io,logsize,newio,niobase,niotype,persistence,s100mib,singlewritenio,statistics;;;;;;;;;;;;;;;;;
-0,285161212;4714;0;base,berkeleyj,btreefeatures,checksum,criticaleviction,evictor,finest,ievictor,io,itracing,logsize,oldio,persistence,s100mib,tracing,tracinglevel;;;;;;;;;;;;;;;;;
-0,99370879;16427;0;base,berkeleyj,btreefeatures,checksum,criticaleviction,directnio,evictor,finest,ievictor,io,itracing,logsize,newio,niobase,niotype,persistence,s1mib,singlewritenio,tracing,tracinglevel;;;;;;;;;;;;;;;;;
-0,199806424;3303;0;base,berkeleyj,btreefeatures,checksum,criticaleviction,directnio,evictor,ievictor,io,itracing,logsize,newio,niobase,niotype,persistence,s100mib,severe,singlewritenio,statistics,tracing,tracinglevel;;;;;;;;;;;;;;;;;
-0,190853548;3155;0;base,berkeleyj,btreefeatures,checksum,chunkednio,criticaleviction,evictor,ievictor,io,itracing,logsize,newio,niobase,niotype,persistence,s100mib,severe,statistics,tracing,tracinglevel;;;;;;;;;;;;;;;;;
-0,296049846;4894;0;base,berkeleyj,btreefeatures,checksum,criticaleviction,evictor,finest,ievictor,io,itracing,logsize,newio,niobase,niotype,persistence,s100mib,singlewritenio,statistics,tracing,tracinglevel;;;;;;;;;;;;;;;;;
-0,314197568;5194;0;base,berkeleyj,btreefeatures,checksum,chunkednio,criticaleviction,evictor,ievictor,io,logsize,newio,niobase,niotype,persistence,s1mib;;;;;;;;;;;;;;;;;
-0,201137257;3325;0;base,berkeleyj,btreefeatures,checksum,chunkednio,criticaleviction,directnio,evictor,ievictor,io,itracing,logsize,newio,niobase,niotype,persistence,s100mib,severe,statistics,tracing,tracinglevel;;;;;;;;;;;;;;;;;
-0,18788942;3106;0;base,berkeleyj,btreefeatures,checksum,criticaleviction,evictor,ievictor,io,itracing,logsize,newio,niobase,niotype,persistence,s100mib,severe,singlewritenio,statistics,tracing,tracinglevel;;;;;;;;;;;;;;;;;
-0,996854395;16479;0;base,berkeleyj,btreefeatures,checksum,chunkednio,criticaleviction,directnio,evictor,finest,ievictor,io,itracing,logsize,newio,niobase,niotype,persistence,s1mib,statistics,tracing,tracinglevel;;;;;;;;;;;;;;;;;
-0,296836247;4907;0;base,berkeleyj,btreefeatures,checksum,chunkednio,criticaleviction,evictor,finest,ievictor,io,itracing,logsize,newio,niobase,niotype,persistence,s100mib,statistics,tracing,tracinglevel;;;;;;;;;;;;;;;;;
-0,313713629;5186;0;base,berkeleyj,btreefeatures,checksum,criticaleviction,evictor,ievictor,io,itracing,logsize,newio,niobase,niotype,persistence,s1mib,severe,singlewritenio,tracing,tracinglevel;;;;;;;;;;;;;;;;;
-0,330772488;5468;0;base,berkeleyj,btreefeatures,checksum,chunkednio,criticaleviction,directnio,evictor,ievictor,io,logsize,newio,niobase,niotype,persistence,s1mib,statistics;;;;;;;;;;;;;;;;;
-0,898433247;14852;0;base,berkeleyj,btreefeatures,checksum,criticaleviction,evictor,finest,ievictor,io,itracing,logsize,newio,niobase,niotype,persistence,s1mib,singlewritenio,statistics,tracing,tracinglevel;;;;;;;;;;;;;;;;;
-0,189885669;3139;0;base,berkeleyj,btreefeatures,checksum,criticaleviction,evictor,ievictor,io,itracing,logsize,oldio,persistence,s100mib,severe,statistics,tracing,tracinglevel;;;;;;;;;;;;;;;;;
-0,330409534;5462;0;base,berkeleyj,btreefeatures,checksum,chunkednio,criticaleviction,directnio,evictor,ievictor,io,itracing,logsize,newio,niobase,niotype,persistence,s1mib,severe,statistics,tracing,tracinglevel;;;;;;;;;;;;;;;;;
-0,891900067;14744;0;base,berkeleyj,btreefeatures,checksum,chunkednio,criticaleviction,evictor,finest,ievictor,io,itracing,logsize,newio,niobase,niotype,persistence,s1mib,statistics,tracing,tracinglevel;;;;;;;;;;;;;;;;;
-0,892928437;14761;0;base,berkeleyj,btreefeatures,checksum,criticaleviction,evictor,finest,ievictor,io,itracing,logsize,oldio,persistence,s1mib,statistics,tracing,tracinglevel;;;;;;;;;;;;;;;;;
-0,323634384;5350;0;base,berkeleyj,btreefeatures,checksum,chunkednio,criticaleviction,evictor,ievictor,io,logsize,newio,niobase,niotype,persistence,s1mib,statistics;;;;;;;;;;;;;;;;;
-0,191458472;3165;0;base,berkeleyj,btreefeatures,checksum,criticaleviction,evictor,ievictor,io,itracing,logsize,newio,niobase,niotype,persistence,s100mib,severe,singlewritenio,tracing,tracinglevel;;;;;;;;;;;;;;;;;
-0,295263444;4881;0;base,berkeleyj,btreefeatures,checksum,criticaleviction,evictor,finest,ievictor,io,itracing,logsize,oldio,persistence,s100mib,statistics,tracing,tracinglevel;;;;;;;;;;;;;;;;;
-0,199564455;3299;0;base,berkeleyj,btreefeatures,checksum,chunkednio,criticaleviction,directnio,evictor,ievictor,io,logsize,newio,niobase,niotype,persistence,s100mib;;;;;;;;;;;;;;;;;
-0,180630331;2986;0;base,berkeleyj,btreefeatures,checksum,chunkednio,criticaleviction,evictor,ievictor,io,itracing,logsize,newio,niobase,niotype,persistence,s100mib,severe,tracing,tracinglevel;;;;;;;;;;;;;;;;;
-0,994858145;16446;0;base,berkeleyj,btreefeatures,checksum,criticaleviction,directnio,evictor,finest,ievictor,io,itracing,logsize,newio,niobase,niotype,persistence,s1mib,singlewritenio,statistics,tracing,tracinglevel;;;;;;;;;;;;;;;;;
-0,207367975;3428;0;base,berkeleyj,btreefeatures,checksum,chunkednio,criticaleviction,directnio,evictor,ievictor,io,logsize,newio,niobase,niotype,persistence,s100mib,statistics;;;;;;;;;;;;;;;;;
